^D:\FMI\SEMESTRUL2\PROGRAMARE ORIENTATA OBIECT\LABORATOARE\LABORATORGUI\LABORATORGUI\CONSOLE.CPP
/c /IX64\DEBUG\UIC /IX64\DEBUG\MOC /I"D:\FMI\SEMESTRUL2\PROGRAMARE ORIENTATA OBIECT\LABORATOARE\LABORATORGUI\LABORATORGUI\X64\DEBUG\QMAKE\TEMP" /ID:\INSTALL\QT\6.0.3\MSVC2019_64\INCLUDE /ID:\INSTALL\QT\6.0.3\MSVC2019_64\INCLUDE\QTUITOOLS /ID:\INSTALL\QT\6.0.3\MSVC2019_64\INCLUDE\QTOPENGLWIDGETS /ID:\INSTALL\QT\6.0.3\MSVC2019_64\INCLUDE\QTQUICKWIDGETS /ID:\INSTALL\QT\6.0.3\MSVC2019_64\INCLUDE\QTWIDGETS /ID:\INSTALL\QT\6.0.3\MSVC2019_64\INCLUDE\QTQUICK /ID:\INSTALL\QT\6.0.3\MSVC2019_64\INCLUDE\QTOPENGL /ID:\INSTALL\QT\6.0.3\MSVC2019_64\INCLUDE\QTGUI /ID:\INSTALL\QT\6.0.3\MSVC2019_64\INCLUDE\QTQMLMODELS /ID:\INSTALL\QT\6.0.3\MSVC2019_64\INCLUDE\QTQML /ID:\INSTALL\QT\6.0.3\MSVC2019_64\INCLUDE\QTNETWORK /ID:\INSTALL\QT\6.0.3\MSVC2019_64\INCLUDE\QTCORE /I/INCLUDE /I"D:\INSTALL\QT\6.0.3\MSVC2019_64\MKSPECS\WIN32-MSVC" /IX64\DEBUG\MOC /IX64\DEBUG\UIC /Zi /nologo /W3 /WX /diagnostics:column /Od /D UNICODE /D _UNICODE /D WIN32 /D _ENABLE_EXTENDED_ALIGNED_STORAGE /D WIN64 /D QT_UITOOLS_LIB /D QT_OPENGLWIDGETS_LIB /D QT_QUICKWIDGETS_LIB /D QT_WIDGETS_LIB /D QT_QUICK_LIB /D QT_OPENGL_LIB /D QT_GUI_LIB /D QT_QMLMODELS_LIB /D QT_QML_LIB /D QT_NETWORK_LIB /D QT_CORE_LIB /Gm- /EHsc /MDd /GS /fp:precise /Zc:wchar_t /Zc:forScope /Zc:inline /std:c++17 /Fo"X64\DEBUG\\" /Fd"X64\DEBUG\VC142.PDB" /Gd /TP /FC D:\FMI\SEMESTRUL2\PROGRAMARE ORIENTATA OBIECT\LABORATOARE\LABORATORGUI\LABORATORGUI\CONSOLE.CPP
^D:\FMI\SEMESTRUL2\PROGRAMARE ORIENTATA OBIECT\LABORATOARE\LABORATORGUI\LABORATORGUI\EXCEPTII.CPP
/c /IX64\DEBUG\UIC /IX64\DEBUG\MOC /I"D:\FMI\SEMESTRUL2\PROGRAMARE ORIENTATA OBIECT\LABORATOARE\LABORATORGUI\LABORATORGUI\X64\DEBUG\QMAKE\TEMP" /ID:\INSTALL\QT\6.0.3\MSVC2019_64\INCLUDE /ID:\INSTALL\QT\6.0.3\MSVC2019_64\INCLUDE\QTUITOOLS /ID:\INSTALL\QT\6.0.3\MSVC2019_64\INCLUDE\QTOPENGLWIDGETS /ID:\INSTALL\QT\6.0.3\MSVC2019_64\INCLUDE\QTQUICKWIDGETS /ID:\INSTALL\QT\6.0.3\MSVC2019_64\INCLUDE\QTWIDGETS /ID:\INSTALL\QT\6.0.3\MSVC2019_64\INCLUDE\QTQUICK /ID:\INSTALL\QT\6.0.3\MSVC2019_64\INCLUDE\QTOPENGL /ID:\INSTALL\QT\6.0.3\MSVC2019_64\INCLUDE\QTGUI /ID:\INSTALL\QT\6.0.3\MSVC2019_64\INCLUDE\QTQMLMODELS /ID:\INSTALL\QT\6.0.3\MSVC2019_64\INCLUDE\QTQML /ID:\INSTALL\QT\6.0.3\MSVC2019_64\INCLUDE\QTNETWORK /ID:\INSTALL\QT\6.0.3\MSVC2019_64\INCLUDE\QTCORE /I/INCLUDE /I"D:\INSTALL\QT\6.0.3\MSVC2019_64\MKSPECS\WIN32-MSVC" /IX64\DEBUG\MOC /IX64\DEBUG\UIC /Zi /nologo /W0 /WX- /diagnostics:column /Od /D UNICODE /D _UNICODE /D WIN32 /D _ENABLE_EXTENDED_ALIGNED_STORAGE /D WIN64 /D QT_UITOOLS_LIB /D QT_OPENGLWIDGETS_LIB /D QT_QUICKWIDGETS_LIB /D QT_WIDGETS_LIB /D QT_QUICK_LIB /D QT_OPENGL_LIB /D QT_GUI_LIB /D QT_QMLMODELS_LIB /D QT_QML_LIB /D QT_NETWORK_LIB /D QT_CORE_LIB /Gm- /EHsc /MDd /GS /fp:precise /Zc:wchar_t /Zc:forScope /Zc:inline /std:c++17 /Fo"X64\DEBUG\\" /Fd"X64\DEBUG\VC142.PDB" /Gd /TP /FC D:\FMI\SEMESTRUL2\PROGRAMARE ORIENTATA OBIECT\LABORATOARE\LABORATORGUI\LABORATORGUI\EXCEPTII.CPP
^D:\FMI\SEMESTRUL2\PROGRAMARE ORIENTATA OBIECT\LABORATOARE\LABORATORGUI\LABORATORGUI\REPOSITORY.CPP
/c /IX64\DEBUG\UIC /IX64\DEBUG\MOC /I"D:\FMI\SEMESTRUL2\PROGRAMARE ORIENTATA OBIECT\LABORATOARE\LABORATORGUI\LABORATORGUI\X64\DEBUG\QMAKE\TEMP" /ID:\INSTALL\QT\6.0.3\MSVC2019_64\INCLUDE /ID:\INSTALL\QT\6.0.3\MSVC2019_64\INCLUDE\QTUITOOLS /ID:\INSTALL\QT\6.0.3\MSVC2019_64\INCLUDE\QTOPENGLWIDGETS /ID:\INSTALL\QT\6.0.3\MSVC2019_64\INCLUDE\QTQUICKWIDGETS /ID:\INSTALL\QT\6.0.3\MSVC2019_64\INCLUDE\QTWIDGETS /ID:\INSTALL\QT\6.0.3\MSVC2019_64\INCLUDE\QTQUICK /ID:\INSTALL\QT\6.0.3\MSVC2019_64\INCLUDE\QTOPENGL /ID:\INSTALL\QT\6.0.3\MSVC2019_64\INCLUDE\QTGUI /ID:\INSTALL\QT\6.0.3\MSVC2019_64\INCLUDE\QTQMLMODELS /ID:\INSTALL\QT\6.0.3\MSVC2019_64\INCLUDE\QTQML /ID:\INSTALL\QT\6.0.3\MSVC2019_64\INCLUDE\QTNETWORK /ID:\INSTALL\QT\6.0.3\MSVC2019_64\INCLUDE\QTCORE /I/INCLUDE /I"D:\INSTALL\QT\6.0.3\MSVC2019_64\MKSPECS\WIN32-MSVC" /IX64\DEBUG\MOC /IX64\DEBUG\UIC /Zi /nologo /W0 /WX- /diagnostics:column /Od /D UNICODE /D _UNICODE /D WIN32 /D _ENABLE_EXTENDED_ALIGNED_STORAGE /D WIN64 /D QT_UITOOLS_LIB /D QT_OPENGLWIDGETS_LIB /D QT_QUICKWIDGETS_LIB /D QT_WIDGETS_LIB /D QT_QUICK_LIB /D QT_OPENGL_LIB /D QT_GUI_LIB /D QT_QMLMODELS_LIB /D QT_QML_LIB /D QT_NETWORK_LIB /D QT_CORE_LIB /Gm- /EHsc /MDd /GS /fp:precise /Zc:wchar_t /Zc:forScope /Zc:inline /std:c++17 /Fo"X64\DEBUG\\" /Fd"X64\DEBUG\VC142.PDB" /Gd /TP /FC D:\FMI\SEMESTRUL2\PROGRAMARE ORIENTATA OBIECT\LABORATOARE\LABORATORGUI\LABORATORGUI\REPOSITORY.CPP
^D:\FMI\SEMESTRUL2\PROGRAMARE ORIENTATA OBIECT\LABORATOARE\LABORATORGUI\LABORATORGUI\REPOSITORYDICTIONAR.CPP
/c /IX64\DEBUG\UIC /IX64\DEBUG\MOC /I"D:\FMI\SEMESTRUL2\PROGRAMARE ORIENTATA OBIECT\LABORATOARE\LABORATORGUI\LABORATORGUI\X64\DEBUG\QMAKE\TEMP" /ID:\INSTALL\QT\6.0.3\MSVC2019_64\INCLUDE /ID:\INSTALL\QT\6.0.3\MSVC2019_64\INCLUDE\QTUITOOLS /ID:\INSTALL\QT\6.0.3\MSVC2019_64\INCLUDE\QTOPENGLWIDGETS /ID:\INSTALL\QT\6.0.3\MSVC2019_64\INCLUDE\QTQUICKWIDGETS /ID:\INSTALL\QT\6.0.3\MSVC2019_64\INCLUDE\QTWIDGETS /ID:\INSTALL\QT\6.0.3\MSVC2019_64\INCLUDE\QTQUICK /ID:\INSTALL\QT\6.0.3\MSVC2019_64\INCLUDE\QTOPENGL /ID:\INSTALL\QT\6.0.3\MSVC2019_64\INCLUDE\QTGUI /ID:\INSTALL\QT\6.0.3\MSVC2019_64\INCLUDE\QTQMLMODELS /ID:\INSTALL\QT\6.0.3\MSVC2019_64\INCLUDE\QTQML /ID:\INSTALL\QT\6.0.3\MSVC2019_64\INCLUDE\QTNETWORK /ID:\INSTALL\QT\6.0.3\MSVC2019_64\INCLUDE\QTCORE /I/INCLUDE /I"D:\INSTALL\QT\6.0.3\MSVC2019_64\MKSPECS\WIN32-MSVC" /IX64\DEBUG\MOC /IX64\DEBUG\UIC /Zi /nologo /W0 /WX- /diagnostics:column /Od /D UNICODE /D _UNICODE /D WIN32 /D _ENABLE_EXTENDED_ALIGNED_STORAGE /D WIN64 /D QT_UITOOLS_LIB /D QT_OPENGLWIDGETS_LIB /D QT_QUICKWIDGETS_LIB /D QT_WIDGETS_LIB /D QT_QUICK_LIB /D QT_OPENGL_LIB /D QT_GUI_LIB /D QT_QMLMODELS_LIB /D QT_QML_LIB /D QT_NETWORK_LIB /D QT_CORE_LIB /Gm- /EHsc /MDd /GS /fp:precise /Zc:wchar_t /Zc:forScope /Zc:inline /std:c++17 /Fo"X64\DEBUG\\" /Fd"X64\DEBUG\VC142.PDB" /Gd /TP /FC D:\FMI\SEMESTRUL2\PROGRAMARE ORIENTATA OBIECT\LABORATOARE\LABORATORGUI\LABORATORGUI\REPOSITORYDICTIONAR.CPP
^D:\FMI\SEMESTRUL2\PROGRAMARE ORIENTATA OBIECT\LABORATOARE\LABORATORGUI\LABORATORGUI\VALIDATOR.CPP
/c /IX64\DEBUG\UIC /IX64\DEBUG\MOC /I"D:\FMI\SEMESTRUL2\PROGRAMARE ORIENTATA OBIECT\LABORATOARE\LABORATORGUI\LABORATORGUI\X64\DEBUG\QMAKE\TEMP" /ID:\INSTALL\QT\6.0.3\MSVC2019_64\INCLUDE /ID:\INSTALL\QT\6.0.3\MSVC2019_64\INCLUDE\QTUITOOLS /ID:\INSTALL\QT\6.0.3\MSVC2019_64\INCLUDE\QTOPENGLWIDGETS /ID:\INSTALL\QT\6.0.3\MSVC2019_64\INCLUDE\QTQUICKWIDGETS /ID:\INSTALL\QT\6.0.3\MSVC2019_64\INCLUDE\QTWIDGETS /ID:\INSTALL\QT\6.0.3\MSVC2019_64\INCLUDE\QTQUICK /ID:\INSTALL\QT\6.0.3\MSVC2019_64\INCLUDE\QTOPENGL /ID:\INSTALL\QT\6.0.3\MSVC2019_64\INCLUDE\QTGUI /ID:\INSTALL\QT\6.0.3\MSVC2019_64\INCLUDE\QTQMLMODELS /ID:\INSTALL\QT\6.0.3\MSVC2019_64\INCLUDE\QTQML /ID:\INSTALL\QT\6.0.3\MSVC2019_64\INCLUDE\QTNETWORK /ID:\INSTALL\QT\6.0.3\MSVC2019_64\INCLUDE\QTCORE /I/INCLUDE /I"D:\INSTALL\QT\6.0.3\MSVC2019_64\MKSPECS\WIN32-MSVC" /IX64\DEBUG\MOC /IX64\DEBUG\UIC /Zi /nologo /W0 /WX- /diagnostics:column /Od /D UNICODE /D _UNICODE /D WIN32 /D _ENABLE_EXTENDED_ALIGNED_STORAGE /D WIN64 /D QT_UITOOLS_LIB /D QT_OPENGLWIDGETS_LIB /D QT_QUICKWIDGETS_LIB /D QT_WIDGETS_LIB /D QT_QUICK_LIB /D QT_OPENGL_LIB /D QT_GUI_LIB /D QT_QMLMODELS_LIB /D QT_QML_LIB /D QT_NETWORK_LIB /D QT_CORE_LIB /Gm- /EHsc /MDd /GS /fp:precise /Zc:wchar_t /Zc:forScope /Zc:inline /std:c++17 /Fo"X64\DEBUG\\" /Fd"X64\DEBUG\VC142.PDB" /Gd /TP /FC D:\FMI\SEMESTRUL2\PROGRAMARE ORIENTATA OBIECT\LABORATOARE\LABORATORGUI\LABORATORGUI\VALIDATOR.CPP
^D:\FMI\SEMESTRUL2\PROGRAMARE ORIENTATA OBIECT\LABORATOARE\LABORATORGUI\LABORATORGUI\DOMAIN.CPP
/c /IX64\DEBUG\UIC /IX64\DEBUG\MOC /I"D:\FMI\SEMESTRUL2\PROGRAMARE ORIENTATA OBIECT\LABORATOARE\LABORATORGUI\LABORATORGUI\X64\DEBUG\QMAKE\TEMP" /ID:\INSTALL\QT\6.0.3\MSVC2019_64\INCLUDE /ID:\INSTALL\QT\6.0.3\MSVC2019_64\INCLUDE\QTUITOOLS /ID:\INSTALL\QT\6.0.3\MSVC2019_64\INCLUDE\QTOPENGLWIDGETS /ID:\INSTALL\QT\6.0.3\MSVC2019_64\INCLUDE\QTQUICKWIDGETS /ID:\INSTALL\QT\6.0.3\MSVC2019_64\INCLUDE\QTWIDGETS /ID:\INSTALL\QT\6.0.3\MSVC2019_64\INCLUDE\QTQUICK /ID:\INSTALL\QT\6.0.3\MSVC2019_64\INCLUDE\QTOPENGL /ID:\INSTALL\QT\6.0.3\MSVC2019_64\INCLUDE\QTGUI /ID:\INSTALL\QT\6.0.3\MSVC2019_64\INCLUDE\QTQMLMODELS /ID:\INSTALL\QT\6.0.3\MSVC2019_64\INCLUDE\QTQML /ID:\INSTALL\QT\6.0.3\MSVC2019_64\INCLUDE\QTNETWORK /ID:\INSTALL\QT\6.0.3\MSVC2019_64\INCLUDE\QTCORE /I/INCLUDE /I"D:\INSTALL\QT\6.0.3\MSVC2019_64\MKSPECS\WIN32-MSVC" /IX64\DEBUG\MOC /IX64\DEBUG\UIC /Zi /nologo /W0 /WX- /diagnostics:column /Od /D UNICODE /D _UNICODE /D WIN32 /D _ENABLE_EXTENDED_ALIGNED_STORAGE /D WIN64 /D QT_UITOOLS_LIB /D QT_OPENGLWIDGETS_LIB /D QT_QUICKWIDGETS_LIB /D QT_WIDGETS_LIB /D QT_QUICK_LIB /D QT_OPENGL_LIB /D QT_GUI_LIB /D QT_QMLMODELS_LIB /D QT_QML_LIB /D QT_NETWORK_LIB /D QT_CORE_LIB /Gm- /EHsc /MDd /GS /fp:precise /Zc:wchar_t /Zc:forScope /Zc:inline /std:c++17 /Fo"X64\DEBUG\\" /Fd"X64\DEBUG\VC142.PDB" /Gd /TP /FC D:\FMI\SEMESTRUL2\PROGRAMARE ORIENTATA OBIECT\LABORATOARE\LABORATORGUI\LABORATORGUI\DOMAIN.CPP
^D:\FMI\SEMESTRUL2\PROGRAMARE ORIENTATA OBIECT\LABORATOARE\LABORATORGUI\LABORATORGUI\X64\DEBUG\RCC\QRC_LABORATORGUI.CPP
/c /IX64\DEBUG\UIC /IX64\DEBUG\MOC /I"D:\FMI\SEMESTRUL2\PROGRAMARE ORIENTATA OBIECT\LABORATOARE\LABORATORGUI\LABORATORGUI\\" /I"D:\FMI\SEMESTRUL2\PROGRAMARE ORIENTATA OBIECT\LABORATOARE\LABORATORGUI\LABORATORGUI\X64\DEBUG\QMAKE\TEMP" /ID:\INSTALL\QT\6.0.3\MSVC2019_64\INCLUDE /ID:\INSTALL\QT\6.0.3\MSVC2019_64\INCLUDE\QTUITOOLS /ID:\INSTALL\QT\6.0.3\MSVC2019_64\INCLUDE\QTOPENGLWIDGETS /ID:\INSTALL\QT\6.0.3\MSVC2019_64\INCLUDE\QTQUICKWIDGETS /ID:\INSTALL\QT\6.0.3\MSVC2019_64\INCLUDE\QTWIDGETS /ID:\INSTALL\QT\6.0.3\MSVC2019_64\INCLUDE\QTQUICK /ID:\INSTALL\QT\6.0.3\MSVC2019_64\INCLUDE\QTOPENGL /ID:\INSTALL\QT\6.0.3\MSVC2019_64\INCLUDE\QTGUI /ID:\INSTALL\QT\6.0.3\MSVC2019_64\INCLUDE\QTQMLMODELS /ID:\INSTALL\QT\6.0.3\MSVC2019_64\INCLUDE\QTQML /ID:\INSTALL\QT\6.0.3\MSVC2019_64\INCLUDE\QTNETWORK /ID:\INSTALL\QT\6.0.3\MSVC2019_64\INCLUDE\QTCORE /I/INCLUDE /I"D:\INSTALL\QT\6.0.3\MSVC2019_64\MKSPECS\WIN32-MSVC" /IX64\DEBUG\MOC /IX64\DEBUG\UIC /Zi /nologo /W0 /WX- /diagnostics:column /Od /D UNICODE /D _UNICODE /D WIN32 /D _ENABLE_EXTENDED_ALIGNED_STORAGE /D WIN64 /D QT_UITOOLS_LIB /D QT_OPENGLWIDGETS_LIB /D QT_QUICKWIDGETS_LIB /D QT_WIDGETS_LIB /D QT_QUICK_LIB /D QT_OPENGL_LIB /D QT_GUI_LIB /D QT_QMLMODELS_LIB /D QT_QML_LIB /D QT_NETWORK_LIB /D QT_CORE_LIB /Gm- /EHsc /MDd /GS /fp:precise /Zc:wchar_t /Zc:forScope /Zc:inline /std:c++17 /Fo"X64\DEBUG\\" /Fd"X64\DEBUG\VC142.PDB" /Gd /TP /FC D:\FMI\SEMESTRUL2\PROGRAMARE ORIENTATA OBIECT\LABORATOARE\LABORATORGUI\LABORATORGUI\X64\DEBUG\RCC\QRC_LABORATORGUI.CPP
^D:\FMI\SEMESTRUL2\PROGRAMARE ORIENTATA OBIECT\LABORATOARE\LABORATORGUI\LABORATORGUI\OBSERVER.CPP
/c /IX64\DEBUG\UIC /IX64\DEBUG\MOC /I"D:\FMI\SEMESTRUL2\PROGRAMARE ORIENTATA OBIECT\LABORATOARE\LABORATORGUI\LABORATORGUI\X64\DEBUG\QMAKE\TEMP" /ID:\INSTALL\QT\6.0.3\MSVC2019_64\INCLUDE /ID:\INSTALL\QT\6.0.3\MSVC2019_64\INCLUDE\QTUITOOLS /ID:\INSTALL\QT\6.0.3\MSVC2019_64\INCLUDE\QTOPENGLWIDGETS /ID:\INSTALL\QT\6.0.3\MSVC2019_64\INCLUDE\QTQUICKWIDGETS /ID:\INSTALL\QT\6.0.3\MSVC2019_64\INCLUDE\QTWIDGETS /ID:\INSTALL\QT\6.0.3\MSVC2019_64\INCLUDE\QTQUICK /ID:\INSTALL\QT\6.0.3\MSVC2019_64\INCLUDE\QTOPENGL /ID:\INSTALL\QT\6.0.3\MSVC2019_64\INCLUDE\QTGUI /ID:\INSTALL\QT\6.0.3\MSVC2019_64\INCLUDE\QTQMLMODELS /ID:\INSTALL\QT\6.0.3\MSVC2019_64\INCLUDE\QTQML /ID:\INSTALL\QT\6.0.3\MSVC2019_64\INCLUDE\QTNETWORK /ID:\INSTALL\QT\6.0.3\MSVC2019_64\INCLUDE\QTCORE /I/INCLUDE /I"D:\INSTALL\QT\6.0.3\MSVC2019_64\MKSPECS\WIN32-MSVC" /IX64\DEBUG\MOC /IX64\DEBUG\UIC /Zi /nologo /W0 /WX- /diagnostics:column /Od /D UNICODE /D _UNICODE /D WIN32 /D _ENABLE_EXTENDED_ALIGNED_STORAGE /D WIN64 /D QT_UITOOLS_LIB /D QT_OPENGLWIDGETS_LIB /D QT_QUICKWIDGETS_LIB /D QT_WIDGETS_LIB /D QT_QUICK_LIB /D QT_OPENGL_LIB /D QT_GUI_LIB /D QT_QMLMODELS_LIB /D QT_QML_LIB /D QT_NETWORK_LIB /D QT_CORE_LIB /Gm- /EHsc /MDd /GS /fp:precise /Zc:wchar_t /Zc:forScope /Zc:inline /std:c++17 /Fo"X64\DEBUG\\" /Fd"X64\DEBUG\VC142.PDB" /Gd /TP /FC D:\FMI\SEMESTRUL2\PROGRAMARE ORIENTATA OBIECT\LABORATOARE\LABORATORGUI\LABORATORGUI\OBSERVER.CPP
^D:\FMI\SEMESTRUL2\PROGRAMARE ORIENTATA OBIECT\LABORATOARE\LABORATORGUI\LABORATORGUI\MODELLISTA.CPP
/c /IX64\DEBUG\UIC /IX64\DEBUG\MOC /I"D:\FMI\SEMESTRUL2\PROGRAMARE ORIENTATA OBIECT\LABORATOARE\LABORATORGUI\LABORATORGUI\X64\DEBUG\QMAKE\TEMP" /ID:\INSTALL\QT\6.0.3\MSVC2019_64\INCLUDE /ID:\INSTALL\QT\6.0.3\MSVC2019_64\INCLUDE\QTUITOOLS /ID:\INSTALL\QT\6.0.3\MSVC2019_64\INCLUDE\QTOPENGLWIDGETS /ID:\INSTALL\QT\6.0.3\MSVC2019_64\INCLUDE\QTQUICKWIDGETS /ID:\INSTALL\QT\6.0.3\MSVC2019_64\INCLUDE\QTWIDGETS /ID:\INSTALL\QT\6.0.3\MSVC2019_64\INCLUDE\QTQUICK /ID:\INSTALL\QT\6.0.3\MSVC2019_64\INCLUDE\QTOPENGL /ID:\INSTALL\QT\6.0.3\MSVC2019_64\INCLUDE\QTGUI /ID:\INSTALL\QT\6.0.3\MSVC2019_64\INCLUDE\QTQMLMODELS /ID:\INSTALL\QT\6.0.3\MSVC2019_64\INCLUDE\QTQML /ID:\INSTALL\QT\6.0.3\MSVC2019_64\INCLUDE\QTNETWORK /ID:\INSTALL\QT\6.0.3\MSVC2019_64\INCLUDE\QTCORE /I/INCLUDE /I"D:\INSTALL\QT\6.0.3\MSVC2019_64\MKSPECS\WIN32-MSVC" /IX64\DEBUG\MOC /IX64\DEBUG\UIC /Zi /nologo /W0 /WX- /diagnostics:column /Od /D UNICODE /D _UNICODE /D WIN32 /D _ENABLE_EXTENDED_ALIGNED_STORAGE /D WIN64 /D QT_UITOOLS_LIB /D QT_OPENGLWIDGETS_LIB /D QT_QUICKWIDGETS_LIB /D QT_WIDGETS_LIB /D QT_QUICK_LIB /D QT_OPENGL_LIB /D QT_GUI_LIB /D QT_QMLMODELS_LIB /D QT_QML_LIB /D QT_NETWORK_LIB /D QT_CORE_LIB /Gm- /EHsc /MDd /GS /fp:precise /Zc:wchar_t /Zc:forScope /Zc:inline /std:c++17 /Fo"X64\DEBUG\\" /Fd"X64\DEBUG\VC142.PDB" /Gd /TP /FC D:\FMI\SEMESTRUL2\PROGRAMARE ORIENTATA OBIECT\LABORATOARE\LABORATORGUI\LABORATORGUI\MODELLISTA.CPP
^D:\FMI\SEMESTRUL2\PROGRAMARE ORIENTATA OBIECT\LABORATOARE\LABORATORGUI\LABORATORGUI\SERVICE.CPP
/c /IX64\DEBUG\UIC /IX64\DEBUG\MOC /I"D:\FMI\SEMESTRUL2\PROGRAMARE ORIENTATA OBIECT\LABORATOARE\LABORATORGUI\LABORATORGUI\X64\DEBUG\QMAKE\TEMP" /ID:\INSTALL\QT\6.0.3\MSVC2019_64\INCLUDE /ID:\INSTALL\QT\6.0.3\MSVC2019_64\INCLUDE\QTUITOOLS /ID:\INSTALL\QT\6.0.3\MSVC2019_64\INCLUDE\QTOPENGLWIDGETS /ID:\INSTALL\QT\6.0.3\MSVC2019_64\INCLUDE\QTQUICKWIDGETS /ID:\INSTALL\QT\6.0.3\MSVC2019_64\INCLUDE\QTWIDGETS /ID:\INSTALL\QT\6.0.3\MSVC2019_64\INCLUDE\QTQUICK /ID:\INSTALL\QT\6.0.3\MSVC2019_64\INCLUDE\QTOPENGL /ID:\INSTALL\QT\6.0.3\MSVC2019_64\INCLUDE\QTGUI /ID:\INSTALL\QT\6.0.3\MSVC2019_64\INCLUDE\QTQMLMODELS /ID:\INSTALL\QT\6.0.3\MSVC2019_64\INCLUDE\QTQML /ID:\INSTALL\QT\6.0.3\MSVC2019_64\INCLUDE\QTNETWORK /ID:\INSTALL\QT\6.0.3\MSVC2019_64\INCLUDE\QTCORE /I/INCLUDE /I"D:\INSTALL\QT\6.0.3\MSVC2019_64\MKSPECS\WIN32-MSVC" /IX64\DEBUG\MOC /IX64\DEBUG\UIC /Zi /nologo /W0 /WX- /diagnostics:column /Od /D UNICODE /D _UNICODE /D WIN32 /D _ENABLE_EXTENDED_ALIGNED_STORAGE /D WIN64 /D QT_UITOOLS_LIB /D QT_OPENGLWIDGETS_LIB /D QT_QUICKWIDGETS_LIB /D QT_WIDGETS_LIB /D QT_QUICK_LIB /D QT_OPENGL_LIB /D QT_GUI_LIB /D QT_QMLMODELS_LIB /D QT_QML_LIB /D QT_NETWORK_LIB /D QT_CORE_LIB /Gm- /EHsc /MDd /GS /fp:precise /Zc:wchar_t /Zc:forScope /Zc:inline /std:c++17 /Fo"X64\DEBUG\\" /Fd"X64\DEBUG\VC142.PDB" /Gd /TP /FC D:\FMI\SEMESTRUL2\PROGRAMARE ORIENTATA OBIECT\LABORATOARE\LABORATORGUI\LABORATORGUI\SERVICE.CPP
^D:\FMI\SEMESTRUL2\PROGRAMARE ORIENTATA OBIECT\LABORATOARE\LABORATORGUI\LABORATORGUI\TESTS.CPP
/c /IX64\DEBUG\UIC /IX64\DEBUG\MOC /I"D:\FMI\SEMESTRUL2\PROGRAMARE ORIENTATA OBIECT\LABORATOARE\LABORATORGUI\LABORATORGUI\X64\DEBUG\QMAKE\TEMP" /ID:\INSTALL\QT\6.0.3\MSVC2019_64\INCLUDE /ID:\INSTALL\QT\6.0.3\MSVC2019_64\INCLUDE\QTUITOOLS /ID:\INSTALL\QT\6.0.3\MSVC2019_64\INCLUDE\QTOPENGLWIDGETS /ID:\INSTALL\QT\6.0.3\MSVC2019_64\INCLUDE\QTQUICKWIDGETS /ID:\INSTALL\QT\6.0.3\MSVC2019_64\INCLUDE\QTWIDGETS /ID:\INSTALL\QT\6.0.3\MSVC2019_64\INCLUDE\QTQUICK /ID:\INSTALL\QT\6.0.3\MSVC2019_64\INCLUDE\QTOPENGL /ID:\INSTALL\QT\6.0.3\MSVC2019_64\INCLUDE\QTGUI /ID:\INSTALL\QT\6.0.3\MSVC2019_64\INCLUDE\QTQMLMODELS /ID:\INSTALL\QT\6.0.3\MSVC2019_64\INCLUDE\QTQML /ID:\INSTALL\QT\6.0.3\MSVC2019_64\INCLUDE\QTNETWORK /ID:\INSTALL\QT\6.0.3\MSVC2019_64\INCLUDE\QTCORE /I/INCLUDE /I"D:\INSTALL\QT\6.0.3\MSVC2019_64\MKSPECS\WIN32-MSVC" /IX64\DEBUG\MOC /IX64\DEBUG\UIC /Zi /nologo /W0 /WX- /diagnostics:column /Od /D UNICODE /D _UNICODE /D WIN32 /D _ENABLE_EXTENDED_ALIGNED_STORAGE /D WIN64 /D QT_UITOOLS_LIB /D QT_OPENGLWIDGETS_LIB /D QT_QUICKWIDGETS_LIB /D QT_WIDGETS_LIB /D QT_QUICK_LIB /D QT_OPENGL_LIB /D QT_GUI_LIB /D QT_QMLMODELS_LIB /D QT_QML_LIB /D QT_NETWORK_LIB /D QT_CORE_LIB /Gm- /EHsc /MDd /GS /fp:precise /Zc:wchar_t /Zc:forScope /Zc:inline /std:c++17 /Fo"X64\DEBUG\\" /Fd"X64\DEBUG\VC142.PDB" /Gd /TP /FC D:\FMI\SEMESTRUL2\PROGRAMARE ORIENTATA OBIECT\LABORATOARE\LABORATORGUI\LABORATORGUI\TESTS.CPP
^D:\FMI\SEMESTRUL2\PROGRAMARE ORIENTATA OBIECT\LABORATOARE\LABORATORGUI\LABORATORGUI\MODELTABEL.CPP
/c /IX64\DEBUG\UIC /IX64\DEBUG\MOC /I"D:\FMI\SEMESTRUL2\PROGRAMARE ORIENTATA OBIECT\LABORATOARE\LABORATORGUI\LABORATORGUI\X64\DEBUG\QMAKE\TEMP" /ID:\INSTALL\QT\6.0.3\MSVC2019_64\INCLUDE /ID:\INSTALL\QT\6.0.3\MSVC2019_64\INCLUDE\QTUITOOLS /ID:\INSTALL\QT\6.0.3\MSVC2019_64\INCLUDE\QTOPENGLWIDGETS /ID:\INSTALL\QT\6.0.3\MSVC2019_64\INCLUDE\QTQUICKWIDGETS /ID:\INSTALL\QT\6.0.3\MSVC2019_64\INCLUDE\QTWIDGETS /ID:\INSTALL\QT\6.0.3\MSVC2019_64\INCLUDE\QTQUICK /ID:\INSTALL\QT\6.0.3\MSVC2019_64\INCLUDE\QTOPENGL /ID:\INSTALL\QT\6.0.3\MSVC2019_64\INCLUDE\QTGUI /ID:\INSTALL\QT\6.0.3\MSVC2019_64\INCLUDE\QTQMLMODELS /ID:\INSTALL\QT\6.0.3\MSVC2019_64\INCLUDE\QTQML /ID:\INSTALL\QT\6.0.3\MSVC2019_64\INCLUDE\QTNETWORK /ID:\INSTALL\QT\6.0.3\MSVC2019_64\INCLUDE\QTCORE /I/INCLUDE /I"D:\INSTALL\QT\6.0.3\MSVC2019_64\MKSPECS\WIN32-MSVC" /IX64\DEBUG\MOC /IX64\DEBUG\UIC /Zi /nologo /W0 /WX- /diagnostics:column /Od /D UNICODE /D _UNICODE /D WIN32 /D _ENABLE_EXTENDED_ALIGNED_STORAGE /D WIN64 /D QT_UITOOLS_LIB /D QT_OPENGLWIDGETS_LIB /D QT_QUICKWIDGETS_LIB /D QT_WIDGETS_LIB /D QT_QUICK_LIB /D QT_OPENGL_LIB /D QT_GUI_LIB /D QT_QMLMODELS_LIB /D QT_QML_LIB /D QT_NETWORK_LIB /D QT_CORE_LIB /Gm- /EHsc /MDd /GS /fp:precise /Zc:wchar_t /Zc:forScope /Zc:inline /std:c++17 /Fo"X64\DEBUG\\" /Fd"X64\DEBUG\VC142.PDB" /Gd /TP /FC D:\FMI\SEMESTRUL2\PROGRAMARE ORIENTATA OBIECT\LABORATOARE\LABORATORGUI\LABORATORGUI\MODELTABEL.CPP
^D:\FMI\SEMESTRUL2\PROGRAMARE ORIENTATA OBIECT\LABORATOARE\LABORATORGUI\LABORATORGUI\LABORATORGUI.CPP
/c /IX64\DEBUG\UIC /IX64\DEBUG\MOC /I"D:\FMI\SEMESTRUL2\PROGRAMARE ORIENTATA OBIECT\LABORATOARE\LABORATORGUI\LABORATORGUI\X64\DEBUG\QMAKE\TEMP" /ID:\INSTALL\QT\6.0.3\MSVC2019_64\INCLUDE /ID:\INSTALL\QT\6.0.3\MSVC2019_64\INCLUDE\QTUITOOLS /ID:\INSTALL\QT\6.0.3\MSVC2019_64\INCLUDE\QTOPENGLWIDGETS /ID:\INSTALL\QT\6.0.3\MSVC2019_64\INCLUDE\QTQUICKWIDGETS /ID:\INSTALL\QT\6.0.3\MSVC2019_64\INCLUDE\QTWIDGETS /ID:\INSTALL\QT\6.0.3\MSVC2019_64\INCLUDE\QTQUICK /ID:\INSTALL\QT\6.0.3\MSVC2019_64\INCLUDE\QTOPENGL /ID:\INSTALL\QT\6.0.3\MSVC2019_64\INCLUDE\QTGUI /ID:\INSTALL\QT\6.0.3\MSVC2019_64\INCLUDE\QTQMLMODELS /ID:\INSTALL\QT\6.0.3\MSVC2019_64\INCLUDE\QTQML /ID:\INSTALL\QT\6.0.3\MSVC2019_64\INCLUDE\QTNETWORK /ID:\INSTALL\QT\6.0.3\MSVC2019_64\INCLUDE\QTCORE /I/INCLUDE /I"D:\INSTALL\QT\6.0.3\MSVC2019_64\MKSPECS\WIN32-MSVC" /IX64\DEBUG\MOC /IX64\DEBUG\UIC /Zi /nologo /W0 /WX- /diagnostics:column /Od /D UNICODE /D _UNICODE /D WIN32 /D _ENABLE_EXTENDED_ALIGNED_STORAGE /D WIN64 /D QT_UITOOLS_LIB /D QT_OPENGLWIDGETS_LIB /D QT_QUICKWIDGETS_LIB /D QT_WIDGETS_LIB /D QT_QUICK_LIB /D QT_OPENGL_LIB /D QT_GUI_LIB /D QT_QMLMODELS_LIB /D QT_QML_LIB /D QT_NETWORK_LIB /D QT_CORE_LIB /Gm- /EHsc /MDd /GS /fp:precise /Zc:wchar_t /Zc:forScope /Zc:inline /std:c++17 /Fo"X64\DEBUG\\" /Fd"X64\DEBUG\VC142.PDB" /Gd /TP /FC D:\FMI\SEMESTRUL2\PROGRAMARE ORIENTATA OBIECT\LABORATOARE\LABORATORGUI\LABORATORGUI\LABORATORGUI.CPP
^D:\FMI\SEMESTRUL2\PROGRAMARE ORIENTATA OBIECT\LABORATOARE\LABORATORGUI\LABORATORGUI\MAIN.CPP
/c /IX64\DEBUG\UIC /IX64\DEBUG\MOC /I"D:\FMI\SEMESTRUL2\PROGRAMARE ORIENTATA OBIECT\LABORATOARE\LABORATORGUI\LABORATORGUI\X64\DEBUG\QMAKE\TEMP" /ID:\INSTALL\QT\6.0.3\MSVC2019_64\INCLUDE /ID:\INSTALL\QT\6.0.3\MSVC2019_64\INCLUDE\QTUITOOLS /ID:\INSTALL\QT\6.0.3\MSVC2019_64\INCLUDE\QTOPENGLWIDGETS /ID:\INSTALL\QT\6.0.3\MSVC2019_64\INCLUDE\QTQUICKWIDGETS /ID:\INSTALL\QT\6.0.3\MSVC2019_64\INCLUDE\QTWIDGETS /ID:\INSTALL\QT\6.0.3\MSVC2019_64\INCLUDE\QTQUICK /ID:\INSTALL\QT\6.0.3\MSVC2019_64\INCLUDE\QTOPENGL /ID:\INSTALL\QT\6.0.3\MSVC2019_64\INCLUDE\QTGUI /ID:\INSTALL\QT\6.0.3\MSVC2019_64\INCLUDE\QTQMLMODELS /ID:\INSTALL\QT\6.0.3\MSVC2019_64\INCLUDE\QTQML /ID:\INSTALL\QT\6.0.3\MSVC2019_64\INCLUDE\QTNETWORK /ID:\INSTALL\QT\6.0.3\MSVC2019_64\INCLUDE\QTCORE /I/INCLUDE /I"D:\INSTALL\QT\6.0.3\MSVC2019_64\MKSPECS\WIN32-MSVC" /IX64\DEBUG\MOC /IX64\DEBUG\UIC /Zi /nologo /W0 /WX- /diagnostics:column /Od /D UNICODE /D _UNICODE /D WIN32 /D _ENABLE_EXTENDED_ALIGNED_STORAGE /D WIN64 /D QT_UITOOLS_LIB /D QT_OPENGLWIDGETS_LIB /D QT_QUICKWIDGETS_LIB /D QT_WIDGETS_LIB /D QT_QUICK_LIB /D QT_OPENGL_LIB /D QT_GUI_LIB /D QT_QMLMODELS_LIB /D QT_QML_LIB /D QT_NETWORK_LIB /D QT_CORE_LIB /Gm- /EHsc /MDd /GS /fp:precise /Zc:wchar_t /Zc:forScope /Zc:inline /std:c++17 /Fo"X64\DEBUG\\" /Fd"X64\DEBUG\VC142.PDB" /Gd /TP /FC D:\FMI\SEMESTRUL2\PROGRAMARE ORIENTATA OBIECT\LABORATOARE\LABORATORGUI\LABORATORGUI\MAIN.CPP
^D:\FMI\SEMESTRUL2\PROGRAMARE ORIENTATA OBIECT\LABORATOARE\LABORATORGUI\LABORATORGUI\X64\DEBUG\MOC\MOC_LABORATORGUI.CPP
/c /IX64\DEBUG\UIC /IX64\DEBUG\MOC /I"D:\FMI\SEMESTRUL2\PROGRAMARE ORIENTATA OBIECT\LABORATOARE\LABORATORGUI\LABORATORGUI\\" /I"D:\FMI\SEMESTRUL2\PROGRAMARE ORIENTATA OBIECT\LABORATOARE\LABORATORGUI\LABORATORGUI\X64\DEBUG\QMAKE\TEMP" /ID:\INSTALL\QT\6.0.3\MSVC2019_64\INCLUDE /ID:\INSTALL\QT\6.0.3\MSVC2019_64\INCLUDE\QTUITOOLS /ID:\INSTALL\QT\6.0.3\MSVC2019_64\INCLUDE\QTOPENGLWIDGETS /ID:\INSTALL\QT\6.0.3\MSVC2019_64\INCLUDE\QTQUICKWIDGETS /ID:\INSTALL\QT\6.0.3\MSVC2019_64\INCLUDE\QTWIDGETS /ID:\INSTALL\QT\6.0.3\MSVC2019_64\INCLUDE\QTQUICK /ID:\INSTALL\QT\6.0.3\MSVC2019_64\INCLUDE\QTOPENGL /ID:\INSTALL\QT\6.0.3\MSVC2019_64\INCLUDE\QTGUI /ID:\INSTALL\QT\6.0.3\MSVC2019_64\INCLUDE\QTQMLMODELS /ID:\INSTALL\QT\6.0.3\MSVC2019_64\INCLUDE\QTQML /ID:\INSTALL\QT\6.0.3\MSVC2019_64\INCLUDE\QTNETWORK /ID:\INSTALL\QT\6.0.3\MSVC2019_64\INCLUDE\QTCORE /I/INCLUDE /I"D:\INSTALL\QT\6.0.3\MSVC2019_64\MKSPECS\WIN32-MSVC" /IX64\DEBUG\MOC /IX64\DEBUG\UIC /Zi /nologo /W0 /WX- /diagnostics:column /Od /D UNICODE /D _UNICODE /D WIN32 /D _ENABLE_EXTENDED_ALIGNED_STORAGE /D WIN64 /D QT_UITOOLS_LIB /D QT_OPENGLWIDGETS_LIB /D QT_QUICKWIDGETS_LIB /D QT_WIDGETS_LIB /D QT_QUICK_LIB /D QT_OPENGL_LIB /D QT_GUI_LIB /D QT_QMLMODELS_LIB /D QT_QML_LIB /D QT_NETWORK_LIB /D QT_CORE_LIB /Gm- /EHsc /MDd /GS /fp:precise /Zc:wchar_t /Zc:forScope /Zc:inline /std:c++17 /Fo"X64\DEBUG\\" /Fd"X64\DEBUG\VC142.PDB" /Gd /TP /FC D:\FMI\SEMESTRUL2\PROGRAMARE ORIENTATA OBIECT\LABORATOARE\LABORATORGUI\LABORATORGUI\X64\DEBUG\MOC\MOC_LABORATORGUI.CPP
