^D:\FMI\SEMESTRUL2\PROGRAMARE ORIENTATA OBIECT\LABORATOARE\LABORATORGUI\LABORATORGUI\X64\DEBUG\DOMAIN.OBJ|D:\FMI\SEMESTRUL2\PROGRAMARE ORIENTATA OBIECT\LABORATOARE\LABORATORGUI\LABORATORGUI\X64\DEBUG\EXCEPTII.OBJ|D:\FMI\SEMESTRUL2\PROGRAMARE ORIENTATA OBIECT\LABORATOARE\LABORATORGUI\LABORATORGUI\X64\DEBUG\LABORATORGUI.OBJ|D:\FMI\SEMESTRUL2\PROGRAMARE ORIENTATA OBIECT\LABORATOARE\LABORATORGUI\LABORATORGUI\X64\DEBUG\MAIN.OBJ|D:\FMI\SEMESTRUL2\PROGRAMARE ORIENTATA OBIECT\LABORATOARE\LABORATORGUI\LABORATORGUI\X64\DEBUG\MOC_LABORATORGUI.OBJ|D:\FMI\SEMESTRUL2\PROGRAMARE ORIENTATA OBIECT\LABORATOARE\LABORATORGUI\LABORATORGUI\X64\DEBUG\MODELLISTA.OBJ|D:\FMI\SEMESTRUL2\PROGRAMARE ORIENTATA OBIECT\LABORATOARE\LABORATORGUI\LABORATORGUI\X64\DEBUG\MODELTABEL.OBJ|D:\FMI\SEMESTRUL2\PROGRAMARE ORIENTATA OBIECT\LABORATOARE\LABORATORGUI\LABORATORGUI\X64\DEBUG\OBSERVER.OBJ|D:\FMI\SEMESTRUL2\PROGRAMARE ORIENTATA OBIECT\LABORATOARE\LABORATORGUI\LABORATORGUI\X64\DEBUG\QRC_LABORATORGUI.OBJ|D:\FMI\SEMESTRUL2\PROGRAMARE ORIENTATA OBIECT\LABORATOARE\LABORATORGUI\LABORATORGUI\X64\DEBUG\REPOSITORY.OBJ|D:\FMI\SEMESTRUL2\PROGRAMARE ORIENTATA OBIECT\LABORATOARE\LABORATORGUI\LABORATORGUI\X64\DEBUG\REPOSITORYDICTIONAR.OBJ|D:\FMI\SEMESTRUL2\PROGRAMARE ORIENTATA OBIECT\LABORATOARE\LABORATORGUI\LABORATORGUI\X64\DEBUG\SERVICE.OBJ|D:\FMI\SEMESTRUL2\PROGRAMARE ORIENTATA OBIECT\LABORATOARE\LABORATORGUI\LABORATORGUI\X64\DEBUG\TESTS.OBJ|D:\FMI\SEMESTRUL2\PROGRAMARE ORIENTATA OBIECT\LABORATOARE\LABORATORGUI\LABORATORGUI\X64\DEBUG\VALIDATOR.OBJ
D:\FMI\SEMESTRUL2\PROGRAMARE ORIENTATA OBIECT\LABORATOARE\LABORATORGUI\X64\DEBUG\LABORATORGUI.EXE
D:\FMI\SEMESTRUL2\PROGRAMARE ORIENTATA OBIECT\LABORATOARE\LABORATORGUI\X64\DEBUG\LABORATORGUI.ILK
D:\FMI\SEMESTRUL2\PROGRAMARE ORIENTATA OBIECT\LABORATOARE\LABORATORGUI\X64\DEBUG\LABORATORGUI.PDB
